%YAML 1.1
%TAG !u! tag:unity3d.com,2011:
--- !u!1001 &5716887334366163847
PrefabInstance:
  m_ObjectHideFlags: 0
  serializedVersion: 2
  m_Modification:
    m_TransformParent: {fileID: 0}
    m_Modifications:
    - target: {fileID: 364822462280162403, guid: 6891c6a1684834db6b1df960e256e0cf, type: 3}
      propertyPath: m_Mesh
      value: 
      objectReference: {fileID: 0}
    - target: {fileID: 795024477479502226, guid: 6891c6a1684834db6b1df960e256e0cf, type: 3}
      propertyPath: m_Mesh
      value: 
      objectReference: {fileID: 0}
    - target: {fileID: 985126703483042473, guid: 6891c6a1684834db6b1df960e256e0cf, type: 3}
      propertyPath: m_Mesh
      value: 
      objectReference: {fileID: 0}
    - target: {fileID: 1096236641082593934, guid: 6891c6a1684834db6b1df960e256e0cf, type: 3}
      propertyPath: m_Mesh
      value: 
      objectReference: {fileID: 0}
    - target: {fileID: 1135196817532851009, guid: 6891c6a1684834db6b1df960e256e0cf, type: 3}
      propertyPath: m_Mesh
      value: 
      objectReference: {fileID: 0}
    - target: {fileID: 2726436012386985546, guid: 6891c6a1684834db6b1df960e256e0cf, type: 3}
      propertyPath: m_Mesh
      value: 
      objectReference: {fileID: 0}
    - target: {fileID: 3172247315708759962, guid: 6891c6a1684834db6b1df960e256e0cf, type: 3}
      propertyPath: m_Mesh
      value: 
      objectReference: {fileID: 0}
    - target: {fileID: 3182600809785286334, guid: 6891c6a1684834db6b1df960e256e0cf, type: 3}
      propertyPath: m_Mesh
      value: 
      objectReference: {fileID: 0}
    - target: {fileID: 3182600810605959850, guid: 6891c6a1684834db6b1df960e256e0cf, type: 3}
      propertyPath: m_Mesh
      value: 
      objectReference: {fileID: 0}
    - target: {fileID: 3182600811513075257, guid: 6891c6a1684834db6b1df960e256e0cf, type: 3}
      propertyPath: m_Name
      value: Start Node Variant
      objectReference: {fileID: 0}
    - target: {fileID: 3182600811513075259, guid: 6891c6a1684834db6b1df960e256e0cf, type: 3}
      propertyPath: m_Mesh
      value: 
      objectReference: {fileID: 0}
    - target: {fileID: 3182600811513075261, guid: 6891c6a1684834db6b1df960e256e0cf, type: 3}
      propertyPath: m_LocalPosition.x
      value: 0
      objectReference: {fileID: 0}
    - target: {fileID: 3182600811513075261, guid: 6891c6a1684834db6b1df960e256e0cf, type: 3}
      propertyPath: m_LocalPosition.y
      value: 0
      objectReference: {fileID: 0}
    - target: {fileID: 3182600811513075261, guid: 6891c6a1684834db6b1df960e256e0cf, type: 3}
      propertyPath: m_LocalPosition.z
      value: 0
      objectReference: {fileID: 0}
    - target: {fileID: 3182600811513075261, guid: 6891c6a1684834db6b1df960e256e0cf, type: 3}
      propertyPath: m_LocalRotation.x
      value: 0
      objectReference: {fileID: 0}
    - target: {fileID: 3182600811513075261, guid: 6891c6a1684834db6b1df960e256e0cf, type: 3}
      propertyPath: m_LocalRotation.y
      value: 0
      objectReference: {fileID: 0}
    - target: {fileID: 3182600811513075261, guid: 6891c6a1684834db6b1df960e256e0cf, type: 3}
      propertyPath: m_LocalRotation.z
      value: 0
      objectReference: {fileID: 0}
    - target: {fileID: 3182600811513075261, guid: 6891c6a1684834db6b1df960e256e0cf, type: 3}
      propertyPath: m_LocalRotation.w
      value: 1
      objectReference: {fileID: 0}
    - target: {fileID: 3182600811513075261, guid: 6891c6a1684834db6b1df960e256e0cf, type: 3}
      propertyPath: m_RootOrder
      value: 0
      objectReference: {fileID: 0}
    - target: {fileID: 3182600811513075261, guid: 6891c6a1684834db6b1df960e256e0cf, type: 3}
      propertyPath: m_LocalEulerAnglesHint.x
      value: 0
      objectReference: {fileID: 0}
    - target: {fileID: 3182600811513075261, guid: 6891c6a1684834db6b1df960e256e0cf, type: 3}
      propertyPath: m_LocalEulerAnglesHint.y
      value: 0
      objectReference: {fileID: 0}
    - target: {fileID: 3182600811513075261, guid: 6891c6a1684834db6b1df960e256e0cf, type: 3}
      propertyPath: m_LocalEulerAnglesHint.z
      value: 0
      objectReference: {fileID: 0}
    - target: {fileID: 3182600811513075263, guid: 6891c6a1684834db6b1df960e256e0cf, type: 3}
      propertyPath: startArrow
      value: 
      objectReference: {fileID: 1366403876467336600}
    - target: {fileID: 3182600811513075263, guid: 6891c6a1684834db6b1df960e256e0cf, type: 3}
      propertyPath: showStartArrow
      value: 1
      objectReference: {fileID: 0}
    - target: {fileID: 3182600811513075263, guid: 6891c6a1684834db6b1df960e256e0cf, type: 3}
      propertyPath: deletingAllowed
      value: 0
      objectReference: {fileID: 0}
    - target: {fileID: 3182600811513075263, guid: 6891c6a1684834db6b1df960e256e0cf, type: 3}
      propertyPath: id
      value: -1
      objectReference: {fileID: 0}
    - target: {fileID: 4997076409988523552, guid: 6891c6a1684834db6b1df960e256e0cf, type: 3}
      propertyPath: m_Mesh
      value: 
      objectReference: {fileID: 0}
    - target: {fileID: 5101833386008255377, guid: 6891c6a1684834db6b1df960e256e0cf, type: 3}
      propertyPath: m_Mesh
      value: 
      objectReference: {fileID: 0}
    - target: {fileID: 5120002628692325988, guid: 6891c6a1684834db6b1df960e256e0cf, type: 3}
      propertyPath: m_Mesh
      value: 
      objectReference: {fileID: 0}
    - target: {fileID: 6008456852402395835, guid: 6891c6a1684834db6b1df960e256e0cf, type: 3}
      propertyPath: m_Mesh
      value: 
      objectReference: {fileID: 0}
    - target: {fileID: 6215862153531276722, guid: 6891c6a1684834db6b1df960e256e0cf, type: 3}
      propertyPath: m_Mesh
      value: 
      objectReference: {fileID: 0}
    - target: {fileID: 7686911347156754016, guid: 6891c6a1684834db6b1df960e256e0cf, type: 3}
      propertyPath: m_Mesh
      value: 
      objectReference: {fileID: 0}
    - target: {fileID: 8020083257979438397, guid: 6891c6a1684834db6b1df960e256e0cf, type: 3}
      propertyPath: m_Mesh
      value: 
      objectReference: {fileID: 0}
    - target: {fileID: 8943543786309799485, guid: 6891c6a1684834db6b1df960e256e0cf, type: 3}
      propertyPath: m_Mesh
      value: 
      objectReference: {fileID: 0}
    - target: {fileID: 9193767061292960931, guid: 6891c6a1684834db6b1df960e256e0cf, type: 3}
      propertyPath: m_Mesh
      value: 
      objectReference: {fileID: 0}
    m_RemovedComponents: []
  m_SourcePrefab: {fileID: 100100000, guid: 6891c6a1684834db6b1df960e256e0cf, type: 3}
--- !u!1 &1366403876467336600 stripped
GameObject:
  m_CorrespondingSourceObject: {fileID: 6746400676267316767, guid: 6891c6a1684834db6b1df960e256e0cf, type: 3}
  m_PrefabInstance: {fileID: 5716887334366163847}
  m_PrefabAsset: {fileID: 0}
